[{"id":1,"date":"2018-01-24T05:44:39Z","title":"Castilleja ambigua Hook. & Arn. ssp. ambigua","description":"Duis aliquam convallis nunc. Proin at turpis a pede posuere nonummy. Integer non velit.\n\nDonec diam neque, vestibulum eget, vulputate ut, ultrices vel, augue. Vestibulum ante ipsum primis in faucibus orci luctus et ultrices posuere cubilia Curae; Donec pharetra, magna vestibulum aliquet ultrices, erat tortor sollicitudin mi, sit amet lobortis sapien sapien non mi. Integer ac neque.\n\nDuis bibendum. Morbi non quam nec dui luctus rutrum. Nulla tellus.","soldout":true,"price":"$2.13","type":"concert","image":"band00.jpeg"},
{"id":2,"date":"2018-04-01T01:17:33Z","title":"Bertholletia Humb. & Bonpl.","description":"Cum sociis natoque penatibus et magnis dis parturient montes, nascetur ridiculus mus. Vivamus vestibulum sagittis sapien. Cum sociis natoque penatibus et magnis dis parturient montes, nascetur ridiculus mus.\n\nEtiam vel augue. Vestibulum rutrum rutrum neque. Aenean auctor gravida sem.","soldout":true,"price":"$5.48","type":"concert","image":"band09.jpeg"},
{"id":3,"date":"2018-01-13T00:59:53Z","title":"Fritillaria eastwoodiae Macfarlane","description":"Duis aliquam convallis nunc. Proin at turpis a pede posuere nonummy. Integer non velit.","soldout":true,"price":"$1.47","type":"concert","image":"band08.jpeg"},
{"id":4,"date":"2018-03-01T15:34:12Z","title":"Ipomoea tenuiloba Torr. var. tenuiloba","description":"Etiam vel augue. Vestibulum rutrum rutrum neque. Aenean auctor gravida sem.","soldout":true,"price":"$5.80","type":"concert","image":"band03.jpeg"},
{"id":5,"date":"2018-04-26T12:51:05Z","title":"Amsonia Walter","description":"Duis aliquam convallis nunc. Proin at turpis a pede posuere nonummy. Integer non velit.","soldout":true,"price":"$1.45","type":"concert","image":"band03.jpeg"},
{"id":6,"date":"2017-10-28T18:43:35Z","title":"Nothoscordum Kunth","description":"Maecenas tristique, est et tempus semper, est quam pharetra magna, ac consequat metus sapien ut nunc. Vestibulum ante ipsum primis in faucibus orci luctus et ultrices posuere cubilia Curae; Mauris viverra diam vitae quam. Suspendisse potenti.\n\nNullam porttitor lacus at turpis. Donec posuere metus vitae ipsum. Aliquam non mauris.\n\nMorbi non lectus. Aliquam sit amet diam in magna bibendum imperdiet. Nullam orci pede, venenatis non, sodales sed, tincidunt eu, felis.\n\nFusce posuere felis sed lacus. Morbi sem mauris, laoreet ut, rhoncus aliquet, pulvinar sed, nisl. Nunc rhoncus dui vel sem.","soldout":true,"price":"$5.74","type":"concert","image":"band02.jpeg"},
{"id":7,"date":"2018-01-16T16:48:44Z","title":"Lupinus croceus Eastw. var. croceus","description":"Sed sagittis. Nam congue, risus semper porta volutpat, quam pede lobortis ligula, sit amet eleifend pede libero quis orci. Nullam molestie nibh in lectus.\n\nPellentesque at nulla. Suspendisse potenti. Cras in purus eu magna vulputate luctus.\n\nCum sociis natoque penatibus et magnis dis parturient montes, nascetur ridiculus mus. Vivamus vestibulum sagittis sapien. Cum sociis natoque penatibus et magnis dis parturient montes, nascetur ridiculus mus.","soldout":false,"price":"$2.34","type":"concert","image":"band07.jpeg"},
{"id":8,"date":"2017-12-11T00:56:08Z","title":"Mikania cordifolia (L. f.) Willd.","description":"Maecenas leo odio, condimentum id, luctus nec, molestie sed, justo. Pellentesque viverra pede ac diam. Cras pellentesque volutpat dui.\n\nMaecenas tristique, est et tempus semper, est quam pharetra magna, ac consequat metus sapien ut nunc. Vestibulum ante ipsum primis in faucibus orci luctus et ultrices posuere cubilia Curae; Mauris viverra diam vitae quam. Suspendisse potenti.\n\nNullam porttitor lacus at turpis. Donec posuere metus vitae ipsum. Aliquam non mauris.","soldout":false,"price":"$3.45","type":"concert","image":"band06.jpeg"},
{"id":9,"date":"2018-01-22T15:52:03Z","title":"Garcinia dulcis (Roxb.) Kurz","description":"Sed ante. Vivamus tortor. Duis mattis egestas metus.\n\nAenean fermentum. Donec ut mauris eget massa tempor convallis. Nulla neque libero, convallis eget, eleifend luctus, ultricies eu, nibh.\n\nQuisque id justo sit amet sapien dignissim vestibulum. Vestibulum ante ipsum primis in faucibus orci luctus et ultrices posuere cubilia Curae; Nulla dapibus dolor vel est. Donec odio justo, sollicitudin ut, suscipit a, feugiat et, eros.","soldout":false,"price":"$7.60","type":"concert","image":"band06.jpeg"},
{"id":10,"date":"2018-04-25T08:05:05Z","title":"Downingia cuspidata (Greene) Greene ex Jeps.","description":"Nullam sit amet turpis elementum ligula vehicula consequat. Morbi a ipsum. Integer a nibh.\n\nIn quis justo. Maecenas rhoncus aliquam lacus. Morbi quis tortor id nulla ultrices aliquet.","soldout":false,"price":"$0.25","type":"concert","image":"band03.jpeg"},
{"id":11,"date":"2018-02-12T01:48:55Z","title":"Eriogonum diclinum Reveal","description":"Phasellus sit amet erat. Nulla tempus. Vivamus in felis eu sapien cursus vestibulum.","soldout":true,"price":"$6.96","type":"concert","image":"band07.jpeg"},
{"id":12,"date":"2017-11-13T11:47:16Z","title":"Heuchera hallii A. Gray","description":"Maecenas leo odio, condimentum id, luctus nec, molestie sed, justo. Pellentesque viverra pede ac diam. Cras pellentesque volutpat dui.\n\nMaecenas tristique, est et tempus semper, est quam pharetra magna, ac consequat metus sapien ut nunc. Vestibulum ante ipsum primis in faucibus orci luctus et ultrices posuere cubilia Curae; Mauris viverra diam vitae quam. Suspendisse potenti.","soldout":true,"price":"$7.06","type":"concert","image":"band04.jpeg"},
{"id":13,"date":"2017-12-27T20:13:11Z","title":"Collema callopismum A. Massal. var. rhyparodes (Nyl.) Degel.","description":"Quisque porta volutpat erat. Quisque erat eros, viverra eget, congue eget, semper rutrum, nulla. Nunc purus.\n\nPhasellus in felis. Donec semper sapien a libero. Nam dui.\n\nProin leo odio, porttitor id, consequat in, consequat ut, nulla. Sed accumsan felis. Ut at dolor quis odio consequat varius.\n\nInteger ac leo. Pellentesque ultrices mattis odio. Donec vitae nisi.","soldout":true,"price":"$5.52","type":"concert","image":"band09.jpeg"},
{"id":14,"date":"2018-02-25T00:29:57Z","title":"Arthothelium interveniens (Nyl.) Zahlbr.","description":"Etiam vel augue. Vestibulum rutrum rutrum neque. Aenean auctor gravida sem.\n\nPraesent id massa id nisl venenatis lacinia. Aenean sit amet justo. Morbi ut odio.\n\nCras mi pede, malesuada in, imperdiet et, commodo vulputate, justo. In blandit ultrices enim. Lorem ipsum dolor sit amet, consectetuer adipiscing elit.","soldout":false,"price":"$3.87","type":"concert","image":"band04.jpeg"},
{"id":15,"date":"2018-01-09T11:35:51Z","title":"Cordylanthus eremicus (Coville & Morton) Munz ssp. eremicus","description":"Phasellus in felis. Donec semper sapien a libero. Nam dui.\n\nProin leo odio, porttitor id, consequat in, consequat ut, nulla. Sed accumsan felis. Ut at dolor quis odio consequat varius.","soldout":true,"price":"$2.84","type":"concert","image":"band02.jpeg"},
{"id":16,"date":"2018-03-19T00:37:32Z","title":"Malacothrix stebbinsii W.S. Davis & P.H. Raven","description":"Cras non velit nec nisi vulputate nonummy. Maecenas tincidunt lacus at velit. Vivamus vel nulla eget eros elementum pellentesque.\n\nQuisque porta volutpat erat. Quisque erat eros, viverra eget, congue eget, semper rutrum, nulla. Nunc purus.\n\nPhasellus in felis. Donec semper sapien a libero. Nam dui.\n\nProin leo odio, porttitor id, consequat in, consequat ut, nulla. Sed accumsan felis. Ut at dolor quis odio consequat varius.","soldout":false,"price":"$4.34","type":"concert","image":"band06.jpeg"},
{"id":17,"date":"2017-11-01T06:06:47Z","title":"Heterocarpon Müll. Arg.","description":"Quisque id justo sit amet sapien dignissim vestibulum. Vestibulum ante ipsum primis in faucibus orci luctus et ultrices posuere cubilia Curae; Nulla dapibus dolor vel est. Donec odio justo, sollicitudin ut, suscipit a, feugiat et, eros.","soldout":false,"price":"$2.07","type":"concert","image":"band03.jpeg"},
{"id":18,"date":"2018-01-04T01:48:48Z","title":"Claytonia exigua Torr. & A. Gray","description":"Sed sagittis. Nam congue, risus semper porta volutpat, quam pede lobortis ligula, sit amet eleifend pede libero quis orci. Nullam molestie nibh in lectus.\n\nPellentesque at nulla. Suspendisse potenti. Cras in purus eu magna vulputate luctus.\n\nCum sociis natoque penatibus et magnis dis parturient montes, nascetur ridiculus mus. Vivamus vestibulum sagittis sapien. Cum sociis natoque penatibus et magnis dis parturient montes, nascetur ridiculus mus.","soldout":false,"price":"$4.46","type":"concert","image":"band00.jpeg"},
{"id":19,"date":"2017-11-04T22:20:30Z","title":"Eriogonum nudum Douglas ex Benth. var. pubiflorum Benth.","description":"Maecenas tristique, est et tempus semper, est quam pharetra magna, ac consequat metus sapien ut nunc. Vestibulum ante ipsum primis in faucibus orci luctus et ultrices posuere cubilia Curae; Mauris viverra diam vitae quam. Suspendisse potenti.\n\nNullam porttitor lacus at turpis. Donec posuere metus vitae ipsum. Aliquam non mauris.","soldout":false,"price":"$9.71","type":"concert","image":"band09.jpeg"},
{"id":20,"date":"2018-01-17T08:21:23Z","title":"Helianthus paradoxus Heiser","description":"Duis bibendum, felis sed interdum venenatis, turpis enim blandit mi, in porttitor pede justo eu massa. Donec dapibus. Duis at velit eu est congue elementum.","soldout":false,"price":"$9.38","type":"concert","image":"band05.jpeg"}]